%YAML 1.1
%TAG !u! tag:unity3d.com,2011:
--- !u!1001 &152739902034344806
PrefabInstance:
  m_ObjectHideFlags: 0
  serializedVersion: 2
  m_Modification:
    m_TransformParent: {fileID: 0}
    m_Modifications:
    - target: {fileID: 515770845315313546, guid: c69a9401233f9b64cbe87601a1839e5f, type: 3}
      propertyPath: m_Name
      value: Tree01
      objectReference: {fileID: 0}
    - target: {fileID: 892753368847873328, guid: c69a9401233f9b64cbe87601a1839e5f, type: 3}
      propertyPath: m_RootOrder
      value: 0
      objectReference: {fileID: 0}
    - target: {fileID: 892753368847873328, guid: c69a9401233f9b64cbe87601a1839e5f, type: 3}
      propertyPath: m_LocalPosition.x
      value: -175.38634
      objectReference: {fileID: 0}
    - target: {fileID: 892753368847873328, guid: c69a9401233f9b64cbe87601a1839e5f, type: 3}
      propertyPath: m_LocalPosition.y
      value: 0.0029053688
      objectReference: {fileID: 0}
    - target: {fileID: 892753368847873328, guid: c69a9401233f9b64cbe87601a1839e5f, type: 3}
      propertyPath: m_LocalPosition.z
      value: -478.17447
      objectReference: {fileID: 0}
    - target: {fileID: 892753368847873328, guid: c69a9401233f9b64cbe87601a1839e5f, type: 3}
      propertyPath: m_LocalRotation.w
      value: 0.92718244
      objectReference: {fileID: 0}
    - target: {fileID: 892753368847873328, guid: c69a9401233f9b64cbe87601a1839e5f, type: 3}
      propertyPath: m_LocalRotation.x
      value: -0
      objectReference: {fileID: 0}
    - target: {fileID: 892753368847873328, guid: c69a9401233f9b64cbe87601a1839e5f, type: 3}
      propertyPath: m_LocalRotation.y
      value: 0.37461013
      objectReference: {fileID: 0}
    - target: {fileID: 892753368847873328, guid: c69a9401233f9b64cbe87601a1839e5f, type: 3}
      propertyPath: m_LocalRotation.z
      value: -0
      objectReference: {fileID: 0}
    - target: {fileID: 892753368847873328, guid: c69a9401233f9b64cbe87601a1839e5f, type: 3}
      propertyPath: m_LocalEulerAnglesHint.x
      value: 0
      objectReference: {fileID: 0}
    - target: {fileID: 892753368847873328, guid: c69a9401233f9b64cbe87601a1839e5f, type: 3}
      propertyPath: m_LocalEulerAnglesHint.y
      value: 44
      objectReference: {fileID: 0}
    - target: {fileID: 892753368847873328, guid: c69a9401233f9b64cbe87601a1839e5f, type: 3}
      propertyPath: m_LocalEulerAnglesHint.z
      value: 0
      objectReference: {fileID: 0}
    m_RemovedComponents: []
  m_SourcePrefab: {fileID: 100100000, guid: c69a9401233f9b64cbe87601a1839e5f, type: 3}
