%YAML 1.1
%TAG !u! tag:unity3d.com,2011:
--- !u!1001 &1581550946084716421
PrefabInstance:
  m_ObjectHideFlags: 0
  serializedVersion: 2
  m_Modification:
    m_TransformParent: {fileID: 0}
    m_Modifications:
    - target: {fileID: 1358590572063510543, guid: d1aa78b590cd5c743a3243a66b64b6e3, type: 3}
      propertyPath: m_Name
      value: Tree01 Variant
      objectReference: {fileID: 0}
    - target: {fileID: 1842392543459412661, guid: d1aa78b590cd5c743a3243a66b64b6e3, type: 3}
      propertyPath: m_RootOrder
      value: 0
      objectReference: {fileID: 0}
    - target: {fileID: 1842392543459412661, guid: d1aa78b590cd5c743a3243a66b64b6e3, type: 3}
      propertyPath: m_LocalScale.x
      value: 2.2747982
      objectReference: {fileID: 0}
    - target: {fileID: 1842392543459412661, guid: d1aa78b590cd5c743a3243a66b64b6e3, type: 3}
      propertyPath: m_LocalScale.y
      value: 2.2747982
      objectReference: {fileID: 0}
    - target: {fileID: 1842392543459412661, guid: d1aa78b590cd5c743a3243a66b64b6e3, type: 3}
      propertyPath: m_LocalScale.z
      value: 2.2747982
      objectReference: {fileID: 0}
    - target: {fileID: 1842392543459412661, guid: d1aa78b590cd5c743a3243a66b64b6e3, type: 3}
      propertyPath: m_LocalPosition.x
      value: -177.78
      objectReference: {fileID: 0}
    - target: {fileID: 1842392543459412661, guid: d1aa78b590cd5c743a3243a66b64b6e3, type: 3}
      propertyPath: m_LocalPosition.y
      value: -1.02
      objectReference: {fileID: 0}
    - target: {fileID: 1842392543459412661, guid: d1aa78b590cd5c743a3243a66b64b6e3, type: 3}
      propertyPath: m_LocalPosition.z
      value: -476.62
      objectReference: {fileID: 0}
    - target: {fileID: 1842392543459412661, guid: d1aa78b590cd5c743a3243a66b64b6e3, type: 3}
      propertyPath: m_LocalRotation.w
      value: 0.7130015
      objectReference: {fileID: 0}
    - target: {fileID: 1842392543459412661, guid: d1aa78b590cd5c743a3243a66b64b6e3, type: 3}
      propertyPath: m_LocalRotation.x
      value: 0
      objectReference: {fileID: 0}
    - target: {fileID: 1842392543459412661, guid: d1aa78b590cd5c743a3243a66b64b6e3, type: 3}
      propertyPath: m_LocalRotation.y
      value: -0.7011625
      objectReference: {fileID: 0}
    - target: {fileID: 1842392543459412661, guid: d1aa78b590cd5c743a3243a66b64b6e3, type: 3}
      propertyPath: m_LocalRotation.z
      value: -0
      objectReference: {fileID: 0}
    - target: {fileID: 1842392543459412661, guid: d1aa78b590cd5c743a3243a66b64b6e3, type: 3}
      propertyPath: m_LocalEulerAnglesHint.x
      value: 0
      objectReference: {fileID: 0}
    - target: {fileID: 1842392543459412661, guid: d1aa78b590cd5c743a3243a66b64b6e3, type: 3}
      propertyPath: m_LocalEulerAnglesHint.y
      value: -89.041
      objectReference: {fileID: 0}
    - target: {fileID: 1842392543459412661, guid: d1aa78b590cd5c743a3243a66b64b6e3, type: 3}
      propertyPath: m_LocalEulerAnglesHint.z
      value: 0
      objectReference: {fileID: 0}
    m_RemovedComponents: []
  m_SourcePrefab: {fileID: 100100000, guid: d1aa78b590cd5c743a3243a66b64b6e3, type: 3}
