%YAML 1.1
%TAG !u! tag:unity3d.com,2011:
--- !u!1 &8509967970319066067
GameObject:
  m_ObjectHideFlags: 0
  m_CorrespondingSourceObject: {fileID: 0}
  m_PrefabInstance: {fileID: 0}
  m_PrefabAsset: {fileID: 0}
  serializedVersion: 6
  m_Component:
  - component: {fileID: 8509967970319066066}
  - component: {fileID: 8509967970319066065}
  m_Layer: 0
  m_Name: AttackerSpawnManager Variant
  m_TagString: Untagged
  m_Icon: {fileID: 0}
  m_NavMeshLayer: 0
  m_StaticEditorFlags: 0
  m_IsActive: 1
--- !u!4 &8509967970319066066
Transform:
  m_ObjectHideFlags: 0
  m_CorrespondingSourceObject: {fileID: 0}
  m_PrefabInstance: {fileID: 0}
  m_PrefabAsset: {fileID: 0}
  m_GameObject: {fileID: 8509967970319066067}
  m_LocalRotation: {x: 0, y: 0, z: 0, w: 1}
  m_LocalPosition: {x: 0, y: 0, z: 0}
  m_LocalScale: {x: 1, y: 1, z: 1}
  m_ConstrainProportionsScale: 0
  m_Children: []
  m_Father: {fileID: 0}
  m_RootOrder: 0
  m_LocalEulerAnglesHint: {x: 0, y: 0, z: 0}
--- !u!114 &8509967970319066065
MonoBehaviour:
  m_ObjectHideFlags: 0
  m_CorrespondingSourceObject: {fileID: 0}
  m_PrefabInstance: {fileID: 0}
  m_PrefabAsset: {fileID: 0}
  m_GameObject: {fileID: 8509967970319066067}
  m_Enabled: 1
  m_EditorHideFlags: 0
  m_Script: {fileID: 11500000, guid: b18f8c6278dfd7943bef4147d7c25cce, type: 3}
  m_Name: 
  m_EditorClassIdentifier: 
  _recruitFields:
  - {fileID: 0}
  - {fileID: 0}
  - {fileID: 0}
  - {fileID: 0}
  - {fileID: 0}
  _batteringRamButton: {fileID: 0}
  _ballistaButton: {fileID: 0}
  _catapultButton: {fileID: 0}
  _trebuchetButton: {fileID: 0}
  _archersButton: {fileID: 0}
  _milkaButton: {fileID: 0}
  _batteringRam: {fileID: 9026980067106301251, guid: 27600f6d969cb3344806407aabc965af, type: 3}
  _ballista: {fileID: 8942732914387361968, guid: cd8afd1e06022444a9f24cea4081da92, type: 3}
  _catapult: {fileID: 7707329330025309759, guid: 33eaf681ed03f6d4795a38f2f7992ddd, type: 3}
  _trebuchet: {fileID: 8942732914387361968, guid: 5ee0c2d25324bf8469723bdf31c26af8, type: 3}
  _archers: {fileID: 7409892178633140882, guid: 4a5cdea0c7bc7644787a37480f60acaf, type: 3}
  _milka: {fileID: 2312279162271638190, guid: acdd3c38caf22104a88568c0fff9ab02, type: 3}
  _troopsButton:
  - {fileID: 0}
  - {fileID: 0}
  - {fileID: 0}
  - {fileID: 0}
  - {fileID: 0}
  - {fileID: 0}
