%YAML 1.1
%TAG !u! tag:unity3d.com,2011:
--- !u!1 &2731115560802049924
GameObject:
  m_ObjectHideFlags: 0
  m_CorrespondingSourceObject: {fileID: 0}
  m_PrefabInstance: {fileID: 0}
  m_PrefabAsset: {fileID: 0}
  serializedVersion: 6
  m_Component:
  - component: {fileID: 2731115560802049925}
  - component: {fileID: 2731115560802049926}
  m_Layer: 0
  m_Name: BasicSpawner Variant
  m_TagString: Untagged
  m_Icon: {fileID: 0}
  m_NavMeshLayer: 0
  m_StaticEditorFlags: 0
  m_IsActive: 1
--- !u!4 &2731115560802049925
Transform:
  m_ObjectHideFlags: 0
  m_CorrespondingSourceObject: {fileID: 0}
  m_PrefabInstance: {fileID: 0}
  m_PrefabAsset: {fileID: 0}
  m_GameObject: {fileID: 2731115560802049924}
  m_LocalRotation: {x: -0, y: -0, z: -0, w: 1}
  m_LocalPosition: {x: 0, y: 0, z: 0}
  m_LocalScale: {x: 1, y: 1, z: 1}
  m_ConstrainProportionsScale: 0
  m_Children: []
  m_Father: {fileID: 0}
  m_RootOrder: 0
  m_LocalEulerAnglesHint: {x: 0, y: 0, z: 0}
--- !u!114 &2731115560802049926
MonoBehaviour:
  m_ObjectHideFlags: 0
  m_CorrespondingSourceObject: {fileID: 0}
  m_PrefabInstance: {fileID: 0}
  m_PrefabAsset: {fileID: 0}
  m_GameObject: {fileID: 2731115560802049924}
  m_Enabled: 1
  m_EditorHideFlags: 0
  m_Script: {fileID: 11500000, guid: 334c7e885747d1d4d9c74f5de1afbd59, type: 3}
  m_Name: 
  m_EditorClassIdentifier: 
  _preparationPhase: {fileID: 0}
  _sitePickManager: {fileID: 0}
  _playerPrefab:
  - RawGuidValue: cda3c077fbadac24ab9c6a2ef6d0281c
  - RawGuidValue: 06b349fe883db184ab091172f5842b74
  _playerStartPos: {x: 61, y: 30, z: 16}
  _startCamera: {fileID: 0}
